playerID,age,gender,opponent,choice,opChoice,condition,day,security,money,food,foodThief,survivors
JK,22,0,Jack,1,1,business,1,100,15,10,0,1
JK,22,0,Celestia,1,0,business,2,100,10,10,0,1
JK,22,0,Maria,1,1,business,3,100,15,10,0,1
JK,22,0,Mozart,0,0,business,4,100,15,10,0,1
JK,22,0,Hina,1,1,business,5,100,20,10,0,1
JK,22,0,Vincent,1,0,business,6,100,15,10,0,1
JK,22,0,Nagito,1,1,business,7,100,20,10,0,1
JK,22,0,Sayori,1,1,business,8,100,25,10,0,1
JK,22,0,Valenzetti,0,0,business,9,100,25,10,0,1
JK,22,0,Q,0,0,business,10,100,25,10,0,1
JK,22,0,Liz,1,1,zombies,11,55,8,25,0,2
JK,22,0,Philip,0,0,zombies,12,55,8,21,0,2
JK,22,0,Sergei,1,1,zombies,13,60,8,28,0,3
JK,22,0,Irene,1,0,zombies,14,60,8,19,0,4
JK,22,0,Reagan,0,0,zombies,15,60,8,22,0,4
JK,22,0,Mirabelle,0,0,zombies,16,60,8,18,0,4
JK,22,0,Nagito,1,1,zombies,17,60,8,33,0,5
JK,22,0,Sofia,1,0,zombies,18,50,8,28,0,5
JK,22,0,Katherine,1,1,zombies,19,50,8,27,0,6
JK,22,0,Gundham,1,1,zombies,20,50,8,25,0,7
AKB,20,0,Jack,1,1,business,1,100,15,10,0,1
AKB,20,0,Celestia,0,0,business,2,100,15,10,0,1
AKB,20,0,Maria,1,1,business,3,100,20,10,0,1
AKB,20,0,Mozart,0,0,business,4,100,20,10,0,1
AKB,20,0,Hina,0,1,business,5,100,30,10,0,1
AKB,20,0,Vincent,0,0,business,6,100,30,10,0,1
AKB,20,0,Nagito,1,1,business,7,100,35,10,0,1
AKB,20,0,Sayori,0,1,business,8,100,45,10,0,1
AKB,20,0,Valenzetti,1,0,business,9,100,40,10,0,1
AKB,20,0,Q,0,0,business,10,100,40,10,0,1
AKB,20,0,Liz,1,1,zombies,11,55,11,37,0,2
AKB,20,0,Philip,1,0,zombies,12,50,11,28,0,2
AKB,20,0,Sergei,1,1,zombies,13,55,11,35,0,3
AKB,20,0,Irene,0,0,zombies,14,55,11,32,0,3
AKB,20,0,Reagan,0,0,zombies,15,55,11,36,0,3
AKB,20,0,Mirabelle,1,0,zombies,16,50,11,32,0,3
AKB,20,0,Nagito,1,1,zombies,17,50,11,48,0,4
AKB,20,0,Sofia,0,0,zombies,18,40,11,49,0,4
AKB,20,0,Katherine,1,1,zombies,19,40,11,49,0,5
AKB,20,0,Gundham,0,1,zombies,20,40,11,54,0,5
ASJ,18,0,Jack,1,1,business,1,100,15,10,0,1
ASJ,18,0,Celestia,1,0,business,2,100,10,10,0,1
ASJ,18,0,Maria,1,1,business,3,100,15,10,0,1
ASJ,18,0,Mozart,0,0,business,4,100,15,10,0,1
ASJ,18,0,Hina,1,1,business,5,100,20,10,0,1
ASJ,18,0,Vincent,0,0,business,6,100,20,10,0,1
ASJ,18,0,Nagito,0,1,business,7,100,30,10,0,1
ASJ,18,0,Sayori,1,1,business,8,100,35,10,0,1
ASJ,18,0,Valenzetti,0,0,business,9,100,35,10,0,1
ASJ,18,0,Q,0,0,business,10,100,35,10,0,1
ASJ,18,0,Liz,1,1,zombies,11,55,12,31,0,2
ASJ,18,0,Philip,0,0,zombies,12,55,12,27,0,2
ASJ,18,0,Sergei,1,1,zombies,13,60,12,34,0,3
ASJ,18,0,Irene,1,0,zombies,14,60,12,25,0,4
ASJ,18,0,Reagan,0,0,zombies,15,60,12,28,0,4
ASJ,18,0,Mirabelle,1,0,zombies,16,55,12,23,0,4
ASJ,18,0,Nagito,1,1,zombies,17,55,12,38,0,5
ASJ,18,0,Sofia,0,0,zombies,18,45,12,38,0,5
ASJ,18,0,Katherine,1,1,zombies,19,45,12,37,0,6
ASJ,18,0,Gundham,0,1,zombies,20,45,12,41,0,6
ASJ2,18,0,Jack,1,1,business,1,100,15,10,0,1
ASJ2,18,0,Celestia,0,0,business,2,100,15,10,0,1
ASJ2,18,0,Maria,1,1,business,3,100,20,10,0,1
ASJ2,18,0,Mozart,0,0,business,4,100,20,10,0,1
ASJ2,18,0,Hina,1,1,business,5,100,25,10,0,1
ASJ2,18,0,Vincent,0,0,business,6,100,25,10,0,1
ASJ2,18,0,Nagito,1,1,business,7,100,30,10,0,1
ASJ2,18,0,Sayori,1,1,business,8,100,35,10,0,1
ASJ2,18,0,Valenzetti,1,0,business,9,100,30,10,0,1
ASJ2,18,0,Q,1,0,business,10,95,30,10,0,1
ASJ2,18,0,Liz,1,1,zombies,11,50,10,28,0,2
ASJ2,18,0,Philip,0,0,zombies,12,50,10,24,0,2
ASJ2,18,0,Sergei,1,1,zombies,13,55,10,31,0,3
ASJ2,18,0,Irene,1,0,zombies,14,55,10,22,0,4
ASJ2,18,0,Reagan,0,0,zombies,15,55,10,25,0,4
ASJ2,18,0,Mirabelle,0,0,zombies,16,55,10,21,0,4
ASJ2,18,0,Nagito,1,1,zombies,17,60,30,36,0,5
ASJ2,18,0,Sofia,0,0,zombies,18,50,30,36,0,5
ASJ2,18,0,Katherine,1,1,zombies,19,50,30,35,0,6
ASJ2,18,0,Gundham,1,1,zombies,20,50,30,33,0,7
CST,27,1,Jack,1,1,business,1,100,15,10,0,1
CST,27,1,Celestia,0,0,business,2,100,15,10,0,1
CST,27,1,Maria,1,1,business,3,100,20,10,0,1
CST,27,1,Mozart,0,0,business,4,100,20,10,0,1
CST,27,1,Hina,0,1,business,5,100,30,10,0,1
CST,27,1,Vincent,0,0,business,6,100,30,10,0,1
CST,27,1,Nagito,0,1,business,7,100,40,10,0,1
CST,27,1,Sayori,1,1,business,8,100,45,10,0,1
CST,27,1,Valenzetti,0,0,business,9,100,45,10,0,1
CST,27,1,Q,1,0,business,10,95,45,10,0,1
CST,27,1,Liz,1,1,zombies,11,50,13,40,0,2
CST,27,1,Philip,1,0,zombies,12,45,13,31,0,2
CST,27,1,Sergei,1,1,zombies,13,50,13,38,0,3
CST,27,1,Irene,1,0,zombies,14,50,13,29,0,4
CST,27,1,Reagan,0,0,zombies,15,50,13,32,0,4
CST,27,1,Mirabelle,1,0,zombies,16,45,13,27,0,4
CST,27,1,Nagito,1,1,zombies,17,45,13,42,0,5
CST,27,1,Sofia,0,0,zombies,18,35,13,42,0,5
CST,27,1,Katherine,1,1,zombies,19,35,13,41,0,6
CST,27,1,Gundham,1,1,zombies,20,35,13,39,0,7
CDK,55,0,Jack,1,1,business,1,100,15,10,0,1
CDK,55,0,Celestia,1,0,business,2,100,10,10,0,1
CDK,55,0,Maria,1,1,business,3,100,15,10,0,1
CDK,55,0,Mozart,0,0,business,4,100,15,10,0,1
CDK,55,0,Hina,1,1,business,5,100,20,10,0,1
CDK,55,0,Vincent,0,0,business,6,100,20,10,0,1
CDK,55,0,Nagito,1,1,business,7,100,25,10,0,1
CDK,55,0,Sayori,0,1,business,8,100,35,10,0,1
CDK,55,0,Valenzetti,0,0,business,9,100,35,10,0,1
CDK,55,0,Q,0,0,business,10,100,35,10,0,1
CDK,55,0,Liz,1,1,zombies,11,55,12,31,0,2
CDK,55,0,Philip,0,0,zombies,12,55,12,27,0,2
CDK,55,0,Sergei,1,1,zombies,13,60,12,34,0,3
CDK,55,0,Irene,0,0,zombies,14,60,12,31,0,3
CDK,55,0,Reagan,0,0,zombies,15,60,12,35,0,3
CDK,55,0,Mirabelle,1,0,zombies,16,55,12,31,0,3
CDK,55,0,Nagito,1,1,zombies,17,55,12,47,0,4
CDK,55,0,Sofia,1,0,zombies,18,45,12,43,0,4
CDK,55,0,Katherine,1,1,zombies,19,45,12,43,0,5
CDK,55,0,Gundham,0,1,zombies,20,45,12,48,0,5
FSJ,23,0,Jack,1,1,business,1,100,15,10,0,1
FSJ,23,0,Celestia,1,0,business,2,100,10,10,0,1
FSJ,23,0,Maria,0,1,business,3,100,20,10,0,1
FSJ,23,0,Mozart,1,0,business,4,100,15,10,0,1
FSJ,23,0,Hina,0,1,business,5,100,25,10,0,1
FSJ,23,0,Vincent,0,0,business,6,100,25,10,0,1
FSJ,23,0,Nagito,0,1,business,7,100,35,10,0,1
FSJ,23,0,Sayori,0,1,business,8,100,45,10,0,1
FSJ,23,0,Valenzetti,1,0,business,9,100,40,10,0,1
FSJ,23,0,Q,0,0,business,10,100,40,10,0,1
FSJ,23,0,Liz,1,1,zombies,11,55,11,37,0,2
FSJ,23,0,Philip,1,0,zombies,12,50,11,28,0,2
FSJ,23,0,Sergei,1,1,zombies,13,55,11,35,0,3
FSJ,23,0,Irene,0,0,zombies,14,55,11,32,0,3
FSJ,23,0,Reagan,0,0,zombies,15,55,11,36,0,3
FSJ,23,0,Mirabelle,1,0,zombies,16,50,11,32,0,3
FSJ,23,0,Nagito,0,1,zombies,17,50,11,59,1,3
FSJ,23,0,Sofia,0,0,zombies,18,40,11,61,1,3
FSJ,23,0,Katherine,1,1,zombies,19,40,11,62,1,4
FSJ,23,0,Gundham,0,1,zombies,20,40,11,68,1,4
AKA,20,1,Jack,1,1,business,1,100,15,10,0,1
AKA,20,1,Celestia,0,0,business,2,100,15,10,0,1
AKA,20,1,Maria,1,1,business,3,100,20,10,0,1
AKA,20,1,Mozart,0,0,business,4,100,20,10,0,1
AKA,20,1,Hina,1,1,business,5,100,25,10,0,1
AKA,20,1,Vincent,0,0,business,6,100,25,10,0,1
AKA,20,1,Nagito,1,1,business,7,100,30,10,0,1
AKA,20,1,Sayori,1,1,business,8,100,35,10,0,1
AKA,20,1,Valenzetti,0,0,business,9,100,35,10,0,1
AKA,20,1,Q,0,0,business,10,100,35,10,0,1
AKA,20,1,Liz,1,1,zombies,11,55,12,31,0,2
AKA,20,1,Philip,1,0,zombies,12,50,12,22,0,2
AKA,20,1,Sergei,1,1,zombies,13,55,12,29,0,3
AKA,20,1,Irene,1,0,zombies,14,55,12,20,0,4
AKA,20,1,Reagan,0,0,zombies,15,55,12,23,0,4
AKA,20,1,Mirabelle,1,0,zombies,16,50,12,18,0,4
AKA,20,1,Nagito,1,1,zombies,17,50,12,33,0,5
AKA,20,1,Sofia,0,0,zombies,18,40,12,33,0,5
AKA,20,1,Katherine,1,1,zombies,19,40,12,32,0,6
AKA,20,1,Gundham,1,1,zombies,20,40,12,30,0,7
JJJS,23,0,Jack,1,1,business,1,100,15,10,0,1
JJJS,23,0,Celestia,1,0,business,2,100,10,10,0,1
JJJS,23,0,Maria,1,1,business,3,100,15,10,0,1
JJJS,23,0,Mozart,1,0,business,4,100,10,10,0,1
JJJS,23,0,Hina,1,1,business,5,100,15,10,0,1
JJJS,23,0,Vincent,0,0,business,6,100,15,10,0,1
JJJS,23,0,Nagito,1,1,business,7,100,20,10,0,1
JJJS,23,0,Sayori,1,1,business,8,100,25,10,0,1
JJJS,23,0,Valenzetti,0,0,business,9,100,25,10,0,1
JJJS,23,0,Q,1,0,business,10,95,25,10,0,1
JJJS,23,0,Liz,1,1,zombies,11,50,8,25,0,2
JJJS,23,0,Philip,1,0,zombies,12,45,8,16,0,2
JJJS,23,0,Sergei,0,1,zombies,13,45,8,17,0,2
JJJS,23,0,Irene,1,0,zombies,14,45,8,9,0,3
JJJS,23,0,Reagan,0,0,zombies,15,45,8,13,0,3
JJJS,23,0,Mirabelle,1,0,zombies,16,40,8,9,0,3
JJJS,23,0,Nagito,0,1,zombies,17,40,8,36,1,3
JJJS,23,0,Sofia,1,0,zombies,18,30,8,33,1,3
JJJS,23,0,Katherine,1,1,zombies,19,30,8,34,1,4
JJJS,23,0,Gundham,0,1,zombies,20,30,8,40,1,4
JF,22,1,Jack,1,1,business,1,100,15,10,0,1
JF,22,1,Celestia,0,0,business,2,100,15,10,0,1
JF,22,1,Maria,1,1,business,3,100,20,10,0,1
JF,22,1,Mozart,1,0,business,4,100,15,10,0,1
JF,22,1,Hina,1,1,business,5,100,20,10,0,1
JF,22,1,Vincent,0,0,business,6,100,20,10,0,1
JF,22,1,Nagito,1,1,business,7,100,25,10,0,1
JF,22,1,Sayori,1,1,business,8,100,30,10,0,1
JF,22,1,Valenzetti,0,0,business,9,100,30,10,0,1
JF,22,1,Q,0,0,business,10,100,30,10,0,1
JF,22,1,Liz,1,1,zombies,11,55,10,28,0,2
JF,22,1,Philip,1,0,zombies,12,50,10,19,0,2
JF,22,1,Sergei,1,1,zombies,13,55,10,26,0,3
JF,22,1,Irene,0,0,zombies,14,55,10,23,0,3
JF,22,1,Reagan,0,0,zombies,15,55,10,27,0,3
JF,22,1,Mirabelle,1,0,zombies,16,50,10,23,0,3
JF,22,1,Nagito,1,1,zombies,17,50,10,39,0,4
JF,22,1,Sofia,1,0,zombies,18,40,10,35,0,4
JF,22,1,Katherine,1,1,zombies,19,40,10,35,0,5
JF,22,1,Gundham,1,1,zombies,20,40,10,34,0,6
kage123,22,1,Jack,1,1,business,1,100,15,10,0,1
kage123,22,1,Celestia,0,0,business,2,100,15,10,0,1
kage123,22,1,Maria,1,1,business,3,100,20,10,0,1
kage123,22,1,Mozart,1,0,business,4,100,15,10,0,1
kage123,22,1,Hina,1,1,business,5,100,20,10,0,1
kage123,22,1,Vincent,0,0,business,6,100,20,10,0,1
kage123,22,1,Nagito,0,1,business,7,100,30,10,0,1
kage123,22,1,Sayori,1,1,business,8,100,35,10,0,1
kage123,22,1,Valenzetti,0,0,business,9,100,35,10,0,1
kage123,22,1,Q,0,0,business,10,100,35,10,0,1
kage123,22,1,Liz,1,1,zombies,11,55,12,31,0,2
kage123,22,1,Philip,0,0,zombies,12,55,12,27,0,2
kage123,22,1,Sergei,1,1,zombies,13,60,12,34,0,3
kage123,22,1,Irene,0,0,zombies,14,60,12,31,0,3
kage123,22,1,Reagan,1,0,zombies,15,60,12,28,0,3
kage123,22,1,Mirabelle,0,0,zombies,16,60,12,25,0,3
kage123,22,1,Nagito,1,1,zombies,17,60,12,41,0,4
kage123,22,1,Sofia,0,0,zombies,18,50,12,42,0,4
kage123,22,1,Katherine,1,1,zombies,19,50,12,42,0,5
kage123,22,1,Gundham,1,1,zombies,20,50,12,41,0,6
KKB,22,1,Jack,1,1,business,1,100,15,10,0,1
KKB,22,1,Celestia,1,0,business,2,100,10,10,0,1
KKB,22,1,Maria,1,1,business,3,100,15,10,0,1
KKB,22,1,Mozart,0,0,business,4,100,15,10,0,1
KKB,22,1,Hina,1,1,business,5,100,20,10,0,1
KKB,22,1,Vincent,0,0,business,6,100,20,10,0,1
KKB,22,1,Nagito,1,1,business,7,100,25,10,0,1
KKB,22,1,Sayori,1,1,business,8,100,30,10,0,1
KKB,22,1,Valenzetti,0,0,business,9,100,30,10,0,1
KKB,22,1,Q,0,0,business,10,100,30,10,0,1
KKB,22,1,Liz,1,1,zombies,11,55,10,28,0,2
KKB,22,1,Philip,0,0,zombies,12,55,10,24,0,2
KKB,22,1,Sergei,1,1,zombies,13,60,10,31,0,3
KKB,22,1,Irene,1,0,zombies,14,60,10,22,0,4
KKB,22,1,Reagan,0,0,zombies,15,60,10,25,0,4
KKB,22,1,Mirabelle,1,0,zombies,16,55,10,20,0,4
KKB,22,1,Nagito,1,1,zombies,17,55,10,35,0,5
KKB,22,1,Sofia,0,0,zombies,18,45,10,35,0,5
KKB,22,1,Katherine,1,1,zombies,19,45,10,34,0,6
KKB,22,1,Gundham,1,1,zombies,20,45,10,32,0,7
KK,24,1,Jack,1,1,business,1,100,15,10,0,1
KK,24,1,Celestia,0,0,business,2,100,15,10,0,1
KK,24,1,Maria,1,1,business,3,100,20,10,0,1
KK,24,1,Mozart,0,0,business,4,100,20,10,0,1
KK,24,1,Hina,1,1,business,5,100,25,10,0,1
KK,24,1,Vincent,0,0,business,6,100,25,10,0,1
KK,24,1,Nagito,1,1,business,7,100,30,10,0,1
KK,24,1,Sayori,1,1,business,8,100,35,10,0,1
KK,24,1,Valenzetti,0,0,business,9,100,35,10,0,1
KK,24,1,Q,0,0,business,10,100,35,10,0,1
KK,24,1,Liz,1,1,zombies,11,55,12,31,0,2
KK,24,1,Philip,0,0,zombies,12,55,12,27,0,2
KK,24,1,Sergei,1,1,zombies,13,60,12,34,0,3
KK,24,1,Irene,1,0,zombies,14,60,12,25,0,4
KK,24,1,Reagan,0,0,zombies,15,60,12,28,0,4
KK,24,1,Mirabelle,0,0,zombies,16,60,12,24,0,4
KK,24,1,Nagito,1,1,zombies,17,60,12,39,0,5
KK,24,1,Sofia,1,0,zombies,18,50,12,34,0,5
KK,24,1,Katherine,1,1,zombies,19,50,12,33,0,6
KK,24,1,Gundham,0,1,zombies,20,50,12,37,0,6
KV,23,0,Jack,1,1,business,1,100,15,10,0,1
KV,23,0,Celestia,1,0,business,2,100,10,10,0,1
KV,23,0,Maria,1,1,business,3,100,15,10,0,1
KV,23,0,Mozart,0,0,business,4,100,15,10,0,1
KV,23,0,Hina,1,1,business,5,100,20,10,0,1
KV,23,0,Vincent,0,0,business,6,100,20,10,0,1
KV,23,0,Nagito,1,1,business,7,100,25,10,0,1
KV,23,0,Sayori,1,1,business,8,100,30,10,0,1
KV,23,0,Valenzetti,0,0,business,9,100,30,10,0,1
KV,23,0,Q,0,0,business,10,100,30,10,0,1
KV,23,0,Liz,1,1,zombies,11,55,10,28,0,2
KV,23,0,Philip,0,0,zombies,12,55,10,24,0,2
KV,23,0,Sergei,1,1,zombies,13,60,10,31,0,3
KV,23,0,Irene,1,0,zombies,14,60,10,22,0,4
KV,23,0,Reagan,0,0,zombies,15,60,10,25,0,4
KV,23,0,Mirabelle,1,0,zombies,16,55,10,20,0,4
KV,23,0,Nagito,1,1,zombies,17,55,10,35,0,5
KV,23,0,Sofia,0,0,zombies,18,45,10,35,0,5
KV,23,0,Katherine,1,1,zombies,19,45,10,34,0,6
KV,23,0,Gundham,1,1,zombies,20,45,10,32,0,7
BabySloth,21,1,Jack,1,1,business,1,100,15,10,0,1
BabySloth,21,1,Celestia,1,0,business,2,100,10,10,0,1
BabySloth,21,1,Maria,1,1,business,3,100,15,10,0,1
BabySloth,21,1,Mozart,0,0,business,4,100,15,10,0,1
BabySloth,21,1,Hina,1,1,business,5,100,20,10,0,1
BabySloth,21,1,Vincent,0,0,business,6,100,20,10,0,1
BabySloth,21,1,Nagito,1,1,business,7,100,25,10,0,1
BabySloth,21,1,Sayori,1,1,business,8,100,30,10,0,1
BabySloth,21,1,Valenzetti,1,0,business,9,100,25,10,0,1
BabySloth,21,1,Q,1,0,business,10,95,25,10,0,1
BabySloth,21,1,Liz,1,1,zombies,11,50,8,25,0,2
BabySloth,21,1,Philip,0,0,zombies,12,50,8,21,0,2
BabySloth,21,1,Sergei,0,1,zombies,13,50,8,22,0,2
BabySloth,21,1,Irene,1,0,zombies,14,50,8,14,0,3
BabySloth,21,1,Reagan,0,0,zombies,15,50,8,18,0,3
BabySloth,21,1,Mirabelle,1,0,zombies,16,45,8,14,0,3
BabySloth,21,1,Nagito,1,1,zombies,17,50,28,30,0,4
BabySloth,21,1,Sofia,1,0,zombies,18,40,28,26,0,4
BabySloth,21,1,Katherine,1,1,zombies,19,40,28,26,0,5
BabySloth,21,1,Gundham,1,1,zombies,20,40,28,25,0,6
MAK,25,1,Jack,0,1,business,1,100,20,10,0,1
MAK,25,1,Celestia,0,0,business,2,100,20,10,0,1
MAK,25,1,Maria,1,1,business,3,100,25,10,0,1
MAK,25,1,Mozart,0,0,business,4,100,25,10,0,1
MAK,25,1,Hina,0,1,business,5,100,30,10,0,1
MAK,25,1,Vincent,0,0,business,6,100,30,10,0,1
MAK,25,1,Nagito,1,1,business,7,100,35,10,0,1
MAK,25,1,Sayori,0,1,business,8,100,45,10,0,1
MAK,25,1,Valenzetti,0,0,business,9,100,45,10,0,1
MAK,25,1,Q,0,0,business,10,100,45,10,0,1
MAK,25,1,Liz,1,1,zombies,11,55,13,40,0,2
MAK,25,1,Philip,0,0,zombies,12,55,13,36,0,2
MAK,25,1,Sergei,1,1,zombies,13,60,13,43,0,3
MAK,25,1,Irene,1,0,zombies,14,60,13,34,0,4
MAK,25,1,Reagan,0,0,zombies,15,60,13,37,0,4
MAK,25,1,Mirabelle,1,0,zombies,16,55,13,32,0,4
MAK,25,1,Nagito,1,1,zombies,17,55,13,47,0,5
MAK,25,1,Sofia,1,0,zombies,18,45,13,42,0,5
MAK,25,1,Katherine,1,1,zombies,19,45,13,41,0,6
MAK,25,1,Gundham,1,1,zombies,20,45,13,39,0,7
MVJ,22,1,Jack,1,1,business,1,100,15,10,0,1
MVJ,22,1,Celestia,0,0,business,2,100,15,10,0,1
MVJ,22,1,Maria,1,1,business,3,100,20,10,0,1
MVJ,22,1,Mozart,0,0,business,4,100,20,10,0,1
MVJ,22,1,Hina,0,1,business,5,100,30,10,0,1
MVJ,22,1,Vincent,0,0,business,6,100,30,10,0,1
MVJ,22,1,Nagito,1,1,business,7,100,35,10,0,1
MVJ,22,1,Sayori,1,1,business,8,100,40,10,0,1
MVJ,22,1,Valenzetti,0,0,business,9,100,40,10,0,1
MVJ,22,1,Q,0,0,business,10,100,40,10,0,1
MVJ,22,1,Liz,1,1,zombies,11,55,11,37,0,2
MVJ,22,1,Philip,1,0,zombies,12,50,11,28,0,2
MVJ,22,1,Sergei,1,1,zombies,13,55,11,35,0,3
MVJ,22,1,Irene,1,0,zombies,14,55,11,26,0,4
MVJ,22,1,Reagan,0,0,zombies,15,55,11,29,0,4
MVJ,22,1,Mirabelle,1,0,zombies,16,50,11,24,0,4
MVJ,22,1,Nagito,1,1,zombies,17,50,11,39,0,5
MVJ,22,1,Sofia,1,0,zombies,18,40,11,34,0,5
MVJ,22,1,Katherine,1,1,zombies,19,40,11,33,0,6
MVJ,22,1,Gundham,1,1,zombies,20,40,11,31,0,7
SAD,52,1,Jack,1,1,business,1,100,15,10,0,1
SAD,52,1,Celestia,0,0,business,2,100,15,10,0,1
SAD,52,1,Maria,1,1,business,3,100,20,10,0,1
SAD,52,1,Mozart,0,0,business,4,100,20,10,0,1
SAD,52,1,Hina,1,1,business,5,100,25,10,0,1
SAD,52,1,Vincent,0,0,business,6,100,25,10,0,1
SAD,52,1,Nagito,0,1,business,7,100,35,10,0,1
SAD,52,1,Sayori,1,1,business,8,100,40,10,0,1
SAD,52,1,Valenzetti,0,0,business,9,100,40,10,0,1
SAD,52,1,Q,0,0,business,10,100,40,10,0,1
SAD,52,1,Liz,1,1,zombies,11,55,11,37,0,2
SAD,52,1,Philip,1,0,zombies,12,50,11,28,0,2
SAD,52,1,Sergei,1,1,zombies,13,55,11,35,0,3
SAD,52,1,Irene,1,0,zombies,14,55,11,26,0,4
SAD,52,1,Reagan,0,0,zombies,15,55,11,29,0,4
SAD,52,1,Mirabelle,1,0,zombies,16,50,11,24,0,4
SAD,52,1,Nagito,1,1,zombies,17,50,11,39,0,5
SAD,52,1,Sofia,0,0,zombies,18,40,11,39,0,5
SAD,52,1,Katherine,1,1,zombies,19,40,11,38,0,6
SAD,52,1,Gundham,0,1,zombies,20,40,11,42,0,6
NLS,21,1,Jack,0,1,business,1,100,20,10,0,1
NLS,21,1,Celestia,1,0,business,2,100,15,10,0,1
NLS,21,1,Maria,1,1,business,3,100,20,10,0,1
NLS,21,1,Mozart,1,0,business,4,100,15,10,0,1
NLS,21,1,Hina,0,1,business,5,100,25,10,0,1
NLS,21,1,Vincent,0,0,business,6,100,25,10,0,1
NLS,21,1,Nagito,1,1,business,7,100,30,10,0,1
NLS,21,1,Sayori,1,1,business,8,100,35,10,0,1
NLS,21,1,Valenzetti,0,0,business,9,100,35,10,0,1
NLS,21,1,Q,1,0,business,10,95,35,10,0,1
NLS,21,1,Liz,1,1,zombies,11,50,12,31,0,2
NLS,21,1,Philip,0,0,zombies,12,50,12,27,0,2
NLS,21,1,Sergei,1,1,zombies,13,55,12,34,0,3
NLS,21,1,Irene,0,0,zombies,14,55,12,31,0,3
NLS,21,1,Reagan,0,0,zombies,15,55,12,35,0,3
NLS,21,1,Mirabelle,1,0,zombies,16,50,12,31,0,3
NLS,21,1,Nagito,1,1,zombies,17,55,32,47,0,4
NLS,21,1,Sofia,0,0,zombies,18,45,32,48,0,4
NLS,21,1,Katherine,1,1,zombies,19,45,32,48,0,5
NLS,21,1,Gundham,1,1,zombies,20,45,32,47,0,6
Bent,25,0,Jack,1,1,business,1,100,15,10,0,1
Bent,25,0,Celestia,0,0,business,2,100,15,10,0,1
Bent,25,0,Maria,1,1,business,3,100,20,10,0,1
Bent,25,0,Mozart,0,0,business,4,100,20,10,0,1
Bent,25,0,Hina,0,1,business,5,100,30,10,0,1
Bent,25,0,Vincent,0,0,business,6,100,30,10,0,1
Bent,25,0,Nagito,1,1,business,7,100,35,10,0,1
Bent,25,0,Sayori,1,1,business,8,100,40,10,0,1
Bent,25,0,Valenzetti,0,0,business,9,100,40,10,0,1
Bent,25,0,Q,0,0,business,10,100,40,10,0,1
Bent,25,0,Liz,1,1,zombies,11,55,11,37,0,2
Bent,25,0,Philip,0,0,zombies,12,55,11,33,0,2
Bent,25,0,Sergei,1,1,zombies,13,60,11,40,0,3
Bent,25,0,Irene,1,0,zombies,14,60,11,31,0,4
Bent,25,0,Reagan,0,0,zombies,15,60,11,34,0,4
Bent,25,0,Mirabelle,0,0,zombies,16,60,11,30,0,4
Bent,25,0,Nagito,1,1,zombies,17,60,11,45,0,5
Bent,25,0,Sofia,0,0,zombies,18,50,11,45,0,5
Bent,25,0,Katherine,1,1,zombies,19,50,11,44,0,6
Bent,25,0,Gundham,1,1,zombies,20,50,11,42,0,7
tjap,21,1,Jack,1,1,business,1,100,15,10,0,1
tjap,21,1,Celestia,1,0,business,2,100,10,10,0,1
tjap,21,1,Maria,1,1,business,3,100,15,10,0,1
tjap,21,1,Mozart,1,0,business,4,100,10,10,0,1
tjap,21,1,Hina,1,1,business,5,100,15,10,0,1
tjap,21,1,Vincent,0,0,business,6,100,15,10,0,1
tjap,21,1,Nagito,1,1,business,7,100,20,10,0,1
tjap,21,1,Sayori,1,1,business,8,100,25,10,0,1
tjap,21,1,Valenzetti,0,0,business,9,100,25,10,0,1
tjap,21,1,Q,0,0,business,10,100,25,10,0,1
tjap,21,1,Liz,1,1,zombies,11,55,8,25,0,2
tjap,21,1,Philip,0,0,zombies,12,55,8,21,0,2
tjap,21,1,Sergei,1,1,zombies,13,60,8,28,0,3
tjap,21,1,Irene,1,0,zombies,14,60,8,19,0,4
tjap,21,1,Reagan,0,0,zombies,15,60,8,22,0,4
tjap,21,1,Mirabelle,1,0,zombies,16,55,8,17,0,4
tjap,21,1,Nagito,1,1,zombies,17,55,8,32,0,5
tjap,21,1,Sofia,1,0,zombies,18,45,8,27,0,5
tjap,21,1,Katherine,1,1,zombies,19,45,8,26,0,6
tjap,21,1,Gundham,0,1,zombies,20,45,8,30,0,6
